
{
  "header": {
    "reportVersion": 2,
    "event": "Allocation failed - JavaScript heap out of memory",
    "trigger": "FatalError",
    "filename": "report.20211117.184552.60997.0.001.json",
    "dumpEventTime": "2021-11-17T18:45:52Z",
    "dumpEventTimeStamp": "1637171152032",
    "processId": 60997,
    "threadId": null,
    "cwd": "/Users/marocchinial/Documents/localhost/WEROAD-TEST",
    "commandLine": [
      "node",
      "/Users/marocchinial/Documents/localhost/WEROAD-TEST/node_modules/.bin/nuxt"
    ],
    "nodejsVersion": "v12.16.3",
    "wordSize": 64,
    "arch": "x64",
    "platform": "darwin",
    "componentVersions": {
      "node": "12.16.3",
      "v8": "7.8.279.23-node.35",
      "uv": "1.34.2",
      "zlib": "1.2.11",
      "brotli": "1.0.7",
      "ares": "1.16.0",
      "modules": "72",
      "nghttp2": "1.40.0",
      "napi": "5",
      "llhttp": "2.0.4",
      "http_parser": "2.9.3",
      "openssl": "1.1.1g",
      "cldr": "36.0",
      "icu": "65.1",
      "tz": "2019c",
      "unicode": "12.1"
    },
    "release": {
      "name": "node",
      "lts": "Erbium",
      "headersUrl": "https://nodejs.org/download/release/v12.16.3/node-v12.16.3-headers.tar.gz",
      "sourceUrl": "https://nodejs.org/download/release/v12.16.3/node-v12.16.3.tar.gz"
    },
    "osName": "Darwin",
    "osRelease": "20.6.0",
    "osVersion": "Darwin Kernel Version 20.6.0: Mon Aug 30 06:12:21 PDT 2021; root:xnu-7195.141.6~3/RELEASE_X86_64",
    "osMachine": "x86_64",
    "cpus": [
      {
        "model": "Intel(R) Core(TM) i7-7700HQ CPU @ 2.80GHz",
        "speed": 2800,
        "user": 57389080,
        "nice": 0,
        "sys": 34198150,
        "idle": 364050020,
        "irq": 0
      },
      {
        "model": "Intel(R) Core(TM) i7-7700HQ CPU @ 2.80GHz",
        "speed": 2800,
        "user": 7642030,
        "nice": 0,
        "sys": 4743190,
        "idle": 443251100,
        "irq": 0
      },
      {
        "model": "Intel(R) Core(TM) i7-7700HQ CPU @ 2.80GHz",
        "speed": 2800,
        "user": 50562360,
        "nice": 0,
        "sys": 25131060,
        "idle": 379942900,
        "irq": 0
      },
      {
        "model": "Intel(R) Core(TM) i7-7700HQ CPU @ 2.80GHz",
        "speed": 2800,
        "user": 7240570,
        "nice": 0,
        "sys": 4196360,
        "idle": 444199350,
        "irq": 0
      },
      {
        "model": "Intel(R) Core(TM) i7-7700HQ CPU @ 2.80GHz",
        "speed": 2800,
        "user": 45158890,
        "nice": 0,
        "sys": 19370840,
        "idle": 391106590,
        "irq": 0
      },
      {
        "model": "Intel(R) Core(TM) i7-7700HQ CPU @ 2.80GHz",
        "speed": 2800,
        "user": 7356900,
        "nice": 0,
        "sys": 3839920,
        "idle": 444439460,
        "irq": 0
      },
      {
        "model": "Intel(R) Core(TM) i7-7700HQ CPU @ 2.80GHz",
        "speed": 2800,
        "user": 42710020,
        "nice": 0,
        "sys": 17063220,
        "idle": 395863070,
        "irq": 0
      },
      {
        "model": "Intel(R) Core(TM) i7-7700HQ CPU @ 2.80GHz",
        "speed": 2800,
        "user": 7533850,
        "nice": 0,
        "sys": 3647160,
        "idle": 444455270,
        "irq": 0
      }
    ],
    "networkInterfaces": [
      {
        "name": "lo0",
        "internal": true,
        "mac": "00:00:00:00:00:00",
        "address": "127.0.0.1",
        "netmask": "255.0.0.0",
        "family": "IPv4"
      },
      {
        "name": "lo0",
        "internal": true,
        "mac": "00:00:00:00:00:00",
        "address": "::1",
        "netmask": "ffff:ffff:ffff:ffff:ffff:ffff:ffff:ffff",
        "family": "IPv6",
        "scopeid": 0
      },
      {
        "name": "lo0",
        "internal": true,
        "mac": "00:00:00:00:00:00",
        "address": "fe80::1",
        "netmask": "ffff:ffff:ffff:ffff::",
        "family": "IPv6",
        "scopeid": 1
      },
      {
        "name": "en0",
        "internal": false,
        "mac": "8c:85:90:86:6d:e3",
        "address": "fe80::428:dc24:b93b:7c30",
        "netmask": "ffff:ffff:ffff:ffff::",
        "family": "IPv6",
        "scopeid": 5
      },
      {
        "name": "en0",
        "internal": false,
        "mac": "8c:85:90:86:6d:e3",
        "address": "192.168.1.147",
        "netmask": "255.255.255.0",
        "family": "IPv4"
      },
      {
        "name": "en0",
        "internal": false,
        "mac": "8c:85:90:86:6d:e3",
        "address": "2001:b07:5d33:364a:9:86c7:a034:68d1",
        "netmask": "ffff:ffff:ffff:ffff::",
        "family": "IPv6",
        "scopeid": 0
      },
      {
        "name": "en0",
        "internal": false,
        "mac": "8c:85:90:86:6d:e3",
        "address": "2001:b07:5d33:364a:50b6:8b07:c646:9212",
        "netmask": "ffff:ffff:ffff:ffff::",
        "family": "IPv6",
        "scopeid": 0
      },
      {
        "name": "en0",
        "internal": false,
        "mac": "8c:85:90:86:6d:e3",
        "address": "2001:b07:5d33:364a:5d4f:1a40:16c8:6ca0",
        "netmask": "ffff:ffff:ffff:ffff::",
        "family": "IPv6",
        "scopeid": 0
      },
      {
        "name": "awdl0",
        "internal": false,
        "mac": "9e:50:e6:fd:5e:41",
        "address": "fe80::9c50:e6ff:fefd:5e41",
        "netmask": "ffff:ffff:ffff:ffff::",
        "family": "IPv6",
        "scopeid": 12
      },
      {
        "name": "llw0",
        "internal": false,
        "mac": "9e:50:e6:fd:5e:41",
        "address": "fe80::9c50:e6ff:fefd:5e41",
        "netmask": "ffff:ffff:ffff:ffff::",
        "family": "IPv6",
        "scopeid": 13
      },
      {
        "name": "utun0",
        "internal": false,
        "mac": "00:00:00:00:00:00",
        "address": "fe80::f1f2:c1d4:8181:7dd3",
        "netmask": "ffff:ffff:ffff:ffff::",
        "family": "IPv6",
        "scopeid": 14
      },
      {
        "name": "utun1",
        "internal": false,
        "mac": "00:00:00:00:00:00",
        "address": "fe80::61ed:d76c:b844:1e58",
        "netmask": "ffff:ffff:ffff:ffff::",
        "family": "IPv6",
        "scopeid": 15
      },
      {
        "name": "en5",
        "internal": false,
        "mac": "ac:de:48:00:11:22",
        "address": "fe80::aede:48ff:fe00:1122",
        "netmask": "ffff:ffff:ffff:ffff::",
        "family": "IPv6",
        "scopeid": 4
      }
    ],
    "host": "AlessanroMacPro.lan"
  },
  "javascriptStack": {
    "message": "No stack.",
    "stack": [
      "Unavailable."
    ]
  },
  "nativeStack": [
    {
      "pc": "0x0000000100164e03",
      "symbol": "report::TriggerNodeReport(v8::Isolate*, node::Environment*, char const*, char const*, std::__1::basic_string<char, std::__1::char_traits<char>, std::__1::allocator<char> > const&, v8::Local<v8::String>) [/Users/marocchinial/.nvm/versions/node/v12.16.3/bin/node]"
    },
    {
      "pc": "0x000000010008645a",
      "symbol": "node::OnFatalError(char const*, char const*) [/Users/marocchinial/.nvm/versions/node/v12.16.3/bin/node]"
    },
    {
      "pc": "0x0000000100187c07",
      "symbol": "v8::Utils::ReportOOMFailure(v8::internal::Isolate*, char const*, bool) [/Users/marocchinial/.nvm/versions/node/v12.16.3/bin/node]"
    },
    {
      "pc": "0x0000000100187ba7",
      "symbol": "v8::internal::V8::FatalProcessOutOfMemory(v8::internal::Isolate*, char const*, bool) [/Users/marocchinial/.nvm/versions/node/v12.16.3/bin/node]"
    },
    {
      "pc": "0x0000000100315955",
      "symbol": "v8::internal::Heap::FatalProcessOutOfMemory(char const*) [/Users/marocchinial/.nvm/versions/node/v12.16.3/bin/node]"
    },
    {
      "pc": "0x00000001003171ca",
      "symbol": "v8::internal::Heap::RecomputeLimits(v8::internal::GarbageCollector) [/Users/marocchinial/.nvm/versions/node/v12.16.3/bin/node]"
    },
    {
      "pc": "0x0000000100313bfc",
      "symbol": "v8::internal::Heap::PerformGarbageCollection(v8::internal::GarbageCollector, v8::GCCallbackFlags) [/Users/marocchinial/.nvm/versions/node/v12.16.3/bin/node]"
    },
    {
      "pc": "0x00000001003119fe",
      "symbol": "v8::internal::Heap::CollectGarbage(v8::internal::AllocationSpace, v8::internal::GarbageCollectionReason, v8::GCCallbackFlags) [/Users/marocchinial/.nvm/versions/node/v12.16.3/bin/node]"
    },
    {
      "pc": "0x000000010031d8ca",
      "symbol": "v8::internal::Heap::AllocateRawWithLightRetry(int, v8::internal::AllocationType, v8::internal::AllocationOrigin, v8::internal::AllocationAlignment) [/Users/marocchinial/.nvm/versions/node/v12.16.3/bin/node]"
    },
    {
      "pc": "0x000000010031d951",
      "symbol": "v8::internal::Heap::AllocateRawWithRetryOrFail(int, v8::internal::AllocationType, v8::internal::AllocationOrigin, v8::internal::AllocationAlignment) [/Users/marocchinial/.nvm/versions/node/v12.16.3/bin/node]"
    },
    {
      "pc": "0x00000001002eb58a",
      "symbol": "v8::internal::Factory::NewFillerObject(int, bool, v8::internal::AllocationType, v8::internal::AllocationOrigin) [/Users/marocchinial/.nvm/versions/node/v12.16.3/bin/node]"
    },
    {
      "pc": "0x000000010063eb00",
      "symbol": "v8::internal::Runtime_AllocateInOldGeneration(int, unsigned long*, v8::internal::Isolate*) [/Users/marocchinial/.nvm/versions/node/v12.16.3/bin/node]"
    },
    {
      "pc": "0x000000010097cc39",
      "symbol": "Builtins_CEntry_Return1_DontSaveFPRegs_ArgvOnStack_NoBuiltinExit [/Users/marocchinial/.nvm/versions/node/v12.16.3/bin/node]"
    },
    {
      "pc": "0x000021f59eff4389",
      "symbol": ""
    }
  ],
  "javascriptHeap": {
    "totalMemory": 2181505024,
    "totalCommittedMemory": 2160964128,
    "usedMemory": 2147318040,
    "availableMemory": 42619568,
    "memoryLimit": 2197815296,
    "heapSpaces": {
      "read_only_space": {
        "memorySize": 262144,
        "committedMemory": 33088,
        "capacity": 32808,
        "used": 32808,
        "available": 0
      },
      "new_space": {
        "memorySize": 28311552,
        "committedMemory": 8459704,
        "capacity": 14140656,
        "used": 2624072,
        "available": 11516584
      },
      "old_space": {
        "memorySize": 1948655616,
        "committedMemory": 1948346368,
        "capacity": 1945944304,
        "used": 1945292248,
        "available": 652056
      },
      "code_space": {
        "memorySize": 2265088,
        "committedMemory": 2115168,
        "capacity": 1848416,
        "used": 1848416,
        "available": 0
      },
      "map_space": {
        "memorySize": 8392704,
        "committedMemory": 8391880,
        "capacity": 4170880,
        "used": 4170880,
        "available": 0
      },
      "large_object_space": {
        "memorySize": 192708608,
        "committedMemory": 192708608,
        "capacity": 192533712,
        "used": 192533712,
        "available": 0
      },
      "code_large_object_space": {
        "memorySize": 909312,
        "committedMemory": 909312,
        "capacity": 815904,
        "used": 815904,
        "available": 0
      },
      "new_large_object_space": {
        "memorySize": 0,
        "committedMemory": 0,
        "capacity": 14140656,
        "used": 0,
        "available": 14140656
      }
    }
  },
  "resourceUsage": {
    "userCpuSeconds": 88.1294,
    "kernelCpuSeconds": 6.00842,
    "cpuConsumptionPercent": 80.4597,
    "maxRss": 2416200122368,
    "pageFaults": {
      "IORequired": 232,
      "IONotRequired": 989966
    },
    "fsActivity": {
      "reads": 0,
      "writes": 0
    }
  },
  "libuv": [
  ],
  "workers": [
  ],
  "environmentVariables": {
    "npm_config_save_dev": "",
    "npm_config_legacy_bundling": "",
    "npm_config_dry_run": "",
    "NVM_INC": "/Users/marocchinial/.nvm/versions/node/v12.16.3/include/node",
    "npm_config_viewer": "man",
    "npm_config_only": "",
    "npm_config_commit_hooks": "true",
    "npm_config_browser": "",
    "npm_package_devDependencies_prettier": "^2.3.2",
    "npm_package_devDependencies__nuxtjs_tailwindcss": "^4.2.0",
    "npm_config_also": "",
    "npm_config_sign_git_commit": "",
    "npm_config_rollback": "true",
    "npm_package_dependencies_epic_spinners": "^1.1.0",
    "NODE": "/Users/marocchinial/.nvm/versions/node/v12.16.3/bin/node",
    "npm_config_usage": "",
    "npm_config_audit": "true",
    "INIT_CWD": "/Users/marocchinial/Documents/localhost/WEROAD-TEST",
    "NVM_CD_FLAGS": "",
    "npm_config_globalignorefile": "/Users/marocchinial/.nvm/versions/node/v12.16.3/etc/npmignore",
    "npm_package_devDependencies_jest": "^27.0.5",
    "TERM": "xterm-256color",
    "SHELL": "/bin/bash",
    "npm_config_shell": "/bin/bash",
    "npm_config_maxsockets": "50",
    "npm_config_init_author_url": "",
    "npm_config_shrinkwrap": "true",
    "npm_config_parseable": "",
    "npm_config_metrics_registry": "https://registry.npmjs.org/",
    "npm_package_devDependencies__nuxtjs_moment": "^1.6.1",
    "TMPDIR": "/var/folders/7h/mhqfzpgj4170pr80wvlsr16hy2k2xv/T/",
    "npm_config_timing": "",
    "npm_config_init_license": "ISC",
    "npm_package_dependencies__nuxtjs_axios": "^5.13.6",
    "npm_config_if_present": "",
    "npm_package_devDependencies_babel_core": "7.0.0-bridge.0",
    "npm_package_scripts_dev": "nuxt",
    "npm_config_sign_git_tag": "",
    "npm_config_init_author_email": "",
    "npm_config_cache_max": "Infinity",
    "npm_package_devDependencies_sass_loader": "10.1.1",
    "npm_config_preid": "",
    "npm_config_long": "",
    "npm_config_local_address": "",
    "npm_config_git_tag_version": "true",
    "npm_config_cert": "",
    "npm_package_dependencies__tailwindcss_forms": "^0.3.3",
    "npm_config_registry": "https://registry.npmjs.org/",
    "npm_config_noproxy": "",
    "npm_config_fetch_retries": "2",
    "npm_package_scripts_generate": "nuxt generate",
    "npm_config_versions": "",
    "npm_config_message": "%s",
    "npm_config_key": "",
    "npm_package_readmeFilename": "README.md",
    "npm_package_dependencies_vue_content_loader": "0.2",
    "npm_package_description": "TFD NuxtJS Tailwind Boilerplate",
    "USER": "marocchinial",
    "NVM_DIR": "/Users/marocchinial/.nvm",
    "npm_package_devDependencies__nuxt_image": "^0.5.0",
    "npm_package_license": "GPL-3.0-or-later",
    "npm_package_devDependencies_eslint_loader": "^4.0.2",
    "COMMAND_MODE": "unix2003",
    "npm_config_globalconfig": "/Users/marocchinial/.nvm/versions/node/v12.16.3/etc/npmrc",
    "npm_package_devDependencies_vuex": "^3.6.2",
    "npm_package_devDependencies_nuxt_sass_resources_loader": "^2.0.5",
    "npm_config_prefer_online": "",
    "npm_config_logs_max": "10",
    "npm_config_always_auth": "",
    "npm_package_devDependencies_babel_jest": "^27.0.5",
    "SSH_AUTH_SOCK": "/private/tmp/com.apple.launchd.o4UBEDFSiL/Listeners",
    "npm_package_devDependencies_postcss": "^8.3.6",
    "npm_package_devDependencies_eslint": "^7.32.0",
    "__CF_USER_TEXT_ENCODING": "0x3C290BBB:0x0:0x4",
    "npm_execpath": "/Users/marocchinial/.nvm/versions/node/v12.16.3/lib/node_modules/npm/bin/npm-cli.js",
    "npm_config_global_style": "",
    "npm_config_cache_lock_retries": "10",
    "npm_config_update_notifier": "true",
    "npm_config_cafile": "",
    "npm_package_devDependencies_vuex_map_fields": "^1.4.1",
    "npm_package_author_name": "TFD",
    "npm_config_heading": "npm",
    "npm_config_audit_level": "low",
    "npm_package_devDependencies_eslint_plugin_prettier": "^3.4.0",
    "npm_config_searchlimit": "20",
    "npm_config_read_only": "",
    "npm_config_offline": "",
    "npm_config_fetch_retry_mintimeout": "10000",
    "npm_config_json": "",
    "npm_config_access": "",
    "npm_config_argv": "{\"remain\":[],\"cooked\":[\"run\",\"dev\",\"--scripts-prepend-node-path\",\"auto\"],\"original\":[\"run\",\"dev\",\"--scripts-prepend-node-path=auto\"]}",
    "PATH": "/Users/marocchinial/.nvm/versions/node/v12.16.3/lib/node_modules/npm/node_modules/npm-lifecycle/node-gyp-bin:/Users/marocchinial/Documents/localhost/WEROAD-TEST/node_modules/.bin:/Users/marocchinial/.nvm/versions/node/v12.16.3/bin:/Users/marocchinial/.npm-global/bin:/Users/marocchinial/Documents/flutter-mobile/bin:/usr/local/bin:/usr/bin:/bin:/usr/sbin:/sbin",
    "npm_config_allow_same_version": "",
    "npm_config_https_proxy": "",
    "npm_config_engine_strict": "",
    "npm_config_description": "true",
    "npm_config_userconfig": "/Users/marocchinial/.npmrc",
    "npm_config_init_module": "/Users/marocchinial/.npm-init.js",
    "__CFBundleIdentifier": "com.jetbrains.WebStorm",
    "npm_config_cidr": "",
    "npm_package_devDependencies_tailwindcss": "^2.2.7",
    "PWD": "/Users/marocchinial/Documents/localhost/WEROAD-TEST",
    "npm_config_user": "1009322939",
    "npm_config_node_version": "12.16.3",
    "npm_package_dependencies_core_js": "^3.15.1",
    "npm_lifecycle_event": "dev",
    "npm_config_save": "true",
    "npm_config_ignore_prepublish": "",
    "npm_config_editor": "vi",
    "npm_config_auth_type": "legacy",
    "npm_package_name": "tfd-nuxt-tailwind-boilerplate",
    "npm_config_tag": "latest",
    "npm_config_script_shell": "",
    "npm_config_progress": "true",
    "npm_config_global": "",
    "npm_config_before": "",
    "npm_package_devDependencies_sass": "^1.43.4",
    "npm_package_devDependencies__vue_test_utils": "^1.2.1",
    "npm_package_scripts_start": "nuxt start",
    "npm_package_scripts_build": "nuxt build",
    "npm_config_searchstaleness": "900",
    "npm_config_optional": "true",
    "npm_config_ham_it_up": "",
    "npm_package_devDependencies__babel_eslint_parser": "^7.15.0",
    "XPC_FLAGS": "0x0",
    "npm_config_save_prod": "",
    "npm_config_force": "",
    "npm_config_bin_links": "true",
    "npm_config_searchopts": "",
    "npm_config_node_gyp": "/Users/marocchinial/.nvm/versions/node/v12.16.3/lib/node_modules/npm/node_modules/node-gyp/bin/node-gyp.js",
    "npm_config_depth": "Infinity",
    "npm_package_devDependencies_eslint_config_prettier": "^8.3.0",
    "npm_config_sso_poll_frequency": "500",
    "npm_config_rebuild_bundle": "true",
    "npm_package_version": "1.0.0",
    "XPC_SERVICE_NAME": "application.com.jetbrains.WebStorm.232166887.257620225",
    "npm_config_unicode": "true",
    "npm_package_devDependencies_autoprefixer": "^10.3.1",
    "SHLVL": "1",
    "npm_package_dependencies__nuxtjs_svg": "^0.3.0",
    "HOME": "/Users/marocchinial",
    "npm_config_fetch_retry_maxtimeout": "60000",
    "npm_package_devDependencies_eslint_plugin_vue": "^7.16.0",
    "npm_package_scripts_test": "jest",
    "npm_config_tag_version_prefix": "v",
    "npm_config_strict_ssl": "true",
    "npm_config_sso_type": "oauth",
    "npm_config_save_prefix": "^",
    "npm_config_loglevel": "notice",
    "npm_config_ca": "",
    "npm_config_scripts_prepend_node_path": "auto",
    "npm_config_save_exact": "",
    "npm_config_group": "213606485",
    "npm_config_fetch_retry_factor": "10",
    "npm_config_dev": "",
    "npm_package_devDependencies_babel_eslint": "^10.1.0",
    "npm_config_version": "",
    "npm_config_prefer_offline": "",
    "npm_config_cache_lock_stale": "60000",
    "npm_package_devDependencies_vue_jest": "^3.0.4",
    "npm_config_otp": "",
    "npm_config_cache_min": "10",
    "npm_package_dependencies_vue_tailwind": "^2.4.2",
    "npm_config_searchexclude": "",
    "npm_config_cache": "/Users/marocchinial/.npm",
    "LOGNAME": "marocchinial",
    "npm_lifecycle_script": "nuxt",
    "npm_config_color": "true",
    "npm_config_proxy": "",
    "npm_config_package_lock": "true",
    "npm_package_devDependencies_eslint_plugin_nuxt": "^2.0.0",
    "LC_CTYPE": "it_IT.UTF-8",
    "npm_config_package_lock_only": "",
    "npm_config_fund": "true",
    "npm_config_save_optional": "",
    "NVM_BIN": "/Users/marocchinial/.nvm/versions/node/v12.16.3/bin",
    "npm_config_ignore_scripts": "",
    "npm_config_user_agent": "npm/6.14.4 node/v12.16.3 darwin x64",
    "npm_package_devDependencies__nuxtjs_eslint_config": "^6.0.1",
    "npm_config_cache_lock_wait": "10000",
    "npm_config_production": "",
    "npm_package_devDependencies__nuxt_types": "~2.15.0",
    "npm_package_dependencies_nuxt": "^2.15.7",
    "npm_config_send_metrics": "",
    "npm_config_save_bundle": "",
    "npm_config_umask": "0022",
    "npm_config_node_options": "",
    "npm_config_init_version": "1.0.0",
    "npm_config_init_author_name": "",
    "npm_config_git": "git",
    "npm_config_scope": "",
    "npm_config_unsafe_perm": "true",
    "npm_config_tmp": "/var/folders/7h/mhqfzpgj4170pr80wvlsr16hy2k2xv/T",
    "npm_config_onload_script": "",
    "npm_node_execpath": "/Users/marocchinial/.nvm/versions/node/v12.16.3/bin/node",
    "npm_config_prefix": "/Users/marocchinial/.nvm/versions/node/v12.16.3",
    "npm_config_link": "",
    "npm_config_format_package_lock": "true",
    "_": "/Users/marocchinial/Documents/localhost/WEROAD-TEST/node_modules/.bin/nuxt",
    "NODE_ENV": "development",
    "_applied": "true",
    "VUE_ENV": "server",
    "_AXIOS_BASE_URL_": "http://localhost:80",
    "VIPS_MIN_STACK_SIZE": "2m",
    "VIPSHOME": "/Users/runner/work/sharp-libvips/sharp-libvips/target"
  },
  "userLimits": {
    "core_file_size_blocks": {
      "soft": 0,
      "hard": "unlimited"
    },
    "data_seg_size_kbytes": {
      "soft": "unlimited",
      "hard": "unlimited"
    },
    "file_size_blocks": {
      "soft": "unlimited",
      "hard": "unlimited"
    },
    "max_locked_memory_bytes": {
      "soft": "unlimited",
      "hard": "unlimited"
    },
    "max_memory_size_kbytes": {
      "soft": "unlimited",
      "hard": "unlimited"
    },
    "open_files": {
      "soft": 1048575,
      "hard": "unlimited"
    },
    "stack_size_bytes": {
      "soft": 8388608,
      "hard": 67104768
    },
    "cpu_time_seconds": {
      "soft": "unlimited",
      "hard": "unlimited"
    },
    "max_user_processes": {
      "soft": 2784,
      "hard": 4176
    },
    "virtual_memory_kbytes": {
      "soft": "unlimited",
      "hard": "unlimited"
    }
  },
  "sharedObjects": [
    "/Users/marocchinial/.nvm/versions/node/v12.16.3/bin/node",
    "/System/Library/Frameworks/CoreFoundation.framework/Versions/A/CoreFoundation",
    "/usr/lib/libSystem.B.dylib",
    "/usr/lib/libc++.1.dylib",
    "/usr/lib/libobjc.A.dylib",
    "/usr/lib/liboah.dylib",
    "/usr/lib/libfakelink.dylib",
    "/usr/lib/libicucore.A.dylib",
    "/System/Library/PrivateFrameworks/SoftLinking.framework/Versions/A/SoftLinking",
    "/usr/lib/libc++abi.dylib",
    "/usr/lib/system/libcache.dylib",
    "/usr/lib/system/libcommonCrypto.dylib",
    "/usr/lib/system/libcompiler_rt.dylib",
    "/usr/lib/system/libcopyfile.dylib",
    "/usr/lib/system/libcorecrypto.dylib",
    "/usr/lib/system/libdispatch.dylib",
    "/usr/lib/system/libdyld.dylib",
    "/usr/lib/system/libkeymgr.dylib",
    "/usr/lib/system/liblaunch.dylib",
    "/usr/lib/system/libmacho.dylib",
    "/usr/lib/system/libquarantine.dylib",
    "/usr/lib/system/libremovefile.dylib",
    "/usr/lib/system/libsystem_asl.dylib",
    "/usr/lib/system/libsystem_blocks.dylib",
    "/usr/lib/system/libsystem_c.dylib",
    "/usr/lib/system/libsystem_collections.dylib",
    "/usr/lib/system/libsystem_configuration.dylib",
    "/usr/lib/system/libsystem_containermanager.dylib",
    "/usr/lib/system/libsystem_coreservices.dylib",
    "/usr/lib/system/libsystem_darwin.dylib",
    "/usr/lib/system/libsystem_dnssd.dylib",
    "/usr/lib/system/libsystem_featureflags.dylib",
    "/usr/lib/system/libsystem_info.dylib",
    "/usr/lib/system/libsystem_m.dylib",
    "/usr/lib/system/libsystem_malloc.dylib",
    "/usr/lib/system/libsystem_networkextension.dylib",
    "/usr/lib/system/libsystem_notify.dylib",
    "/usr/lib/system/libsystem_product_info_filter.dylib",
    "/usr/lib/system/libsystem_sandbox.dylib",
    "/usr/lib/system/libsystem_secinit.dylib",
    "/usr/lib/system/libsystem_kernel.dylib",
    "/usr/lib/system/libsystem_platform.dylib",
    "/usr/lib/system/libsystem_pthread.dylib",
    "/usr/lib/system/libsystem_symptoms.dylib",
    "/usr/lib/system/libsystem_trace.dylib",
    "/usr/lib/system/libunwind.dylib",
    "/usr/lib/system/libxpc.dylib",
    "/Users/marocchinial/Documents/localhost/WEROAD-TEST/node_modules/sharp/build/Release/sharp.node",
    "/Users/marocchinial/Documents/localhost/WEROAD-TEST/node_modules/sharp/vendor/8.10.6/lib/libvips-cpp.42.dylib",
    "/System/Library/Frameworks/CoreServices.framework/Versions/A/CoreServices",
    "/System/Library/Frameworks/Foundation.framework/Versions/C/Foundation",
    "/System/Library/Frameworks/AppKit.framework/Versions/C/AppKit",
    "/System/Library/Frameworks/ApplicationServices.framework/Versions/A/ApplicationServices",
    "/usr/lib/libresolv.9.dylib",
    "/usr/lib/libiconv.2.dylib",
    "/System/Library/Frameworks/Carbon.framework/Versions/A/Carbon",
    "/System/Library/Frameworks/CoreGraphics.framework/Versions/A/CoreGraphics",
    "/System/Library/Frameworks/CoreText.framework/Versions/A/CoreText",
    "/System/Library/Frameworks/CFNetwork.framework/Versions/A/CFNetwork",
    "/System/Library/Frameworks/CoreServices.framework/Versions/A/Frameworks/FSEvents.framework/Versions/A/FSEvents",
    "/System/Library/Frameworks/CoreServices.framework/Versions/A/Frameworks/CarbonCore.framework/Versions/A/CarbonCore",
    "/System/Library/Frameworks/CoreServices.framework/Versions/A/Frameworks/Metadata.framework/Versions/A/Metadata",
    "/System/Library/Frameworks/CoreServices.framework/Versions/A/Frameworks/OSServices.framework/Versions/A/OSServices",
    "/System/Library/Frameworks/CoreServices.framework/Versions/A/Frameworks/SearchKit.framework/Versions/A/SearchKit",
    "/System/Library/Frameworks/CoreServices.framework/Versions/A/Frameworks/AE.framework/Versions/A/AE",
    "/System/Library/Frameworks/CoreServices.framework/Versions/A/Frameworks/LaunchServices.framework/Versions/A/LaunchServices",
    "/System/Library/Frameworks/CoreServices.framework/Versions/A/Frameworks/DictionaryServices.framework/Versions/A/DictionaryServices",
    "/System/Library/Frameworks/CoreServices.framework/Versions/A/Frameworks/SharedFileList.framework/Versions/A/SharedFileList",
    "/System/Library/Frameworks/IOKit.framework/Versions/A/IOKit",
    "/System/Library/Frameworks/Security.framework/Versions/A/Security",
    "/System/Library/Frameworks/SystemConfiguration.framework/Versions/A/SystemConfiguration",
    "/usr/lib/libapple_nghttp2.dylib",
    "/usr/lib/libnetwork.dylib",
    "/usr/lib/libsqlite3.dylib",
    "/usr/lib/libz.1.dylib",
    "/usr/lib/libDiagnosticMessagesClient.dylib",
    "/usr/lib/libenergytrace.dylib",
    "/usr/lib/libbsm.0.dylib",
    "/usr/lib/system/libkxld.dylib",
    "/usr/lib/libMobileGestalt.dylib",
    "/System/Library/PrivateFrameworks/AppleFSCompression.framework/Versions/A/AppleFSCompression",
    "/usr/lib/libcoretls.dylib",
    "/usr/lib/libcoretls_cfhelpers.dylib",
    "/usr/lib/libpam.2.dylib",
    "/usr/lib/libxar.1.dylib",
    "/System/Library/PrivateFrameworks/CoreAutoLayout.framework/Versions/A/CoreAutoLayout",
    "/usr/lib/libcompression.dylib",
    "/System/Library/Frameworks/DiskArbitration.framework/Versions/A/DiskArbitration",
    "/usr/lib/libarchive.2.dylib",
    "/usr/lib/libxml2.2.dylib",
    "/usr/lib/liblangid.dylib",
    "/usr/lib/libCRFSuite.dylib",
    "/usr/lib/libpcap.A.dylib",
    "/usr/lib/libdns_services.dylib",
    "/usr/lib/liblzma.5.dylib",
    "/usr/lib/libbz2.1.0.dylib",
    "/usr/lib/libcharset.1.dylib",
    "/System/Library/PrivateFrameworks/AppleSystemInfo.framework/Versions/A/AppleSystemInfo",
    "/System/Library/PrivateFrameworks/IOMobileFramebuffer.framework/Versions/A/IOMobileFramebuffer",
    "/System/Library/Frameworks/IOSurface.framework/Versions/A/IOSurface",
    "/usr/lib/libCheckFix.dylib",
    "/System/Library/PrivateFrameworks/TCC.framework/Versions/A/TCC",
    "/System/Library/PrivateFrameworks/CoreNLP.framework/Versions/A/CoreNLP",
    "/System/Library/PrivateFrameworks/MetadataUtilities.framework/Versions/A/MetadataUtilities",
    "/usr/lib/libmecabra.dylib",
    "/System/Library/Frameworks/MLCompute.framework/Versions/A/MLCompute",
    "/System/Library/Frameworks/Accelerate.framework/Versions/A/Accelerate",
    "/usr/lib/libmecab.dylib",
    "/usr/lib/libgermantok.dylib",
    "/usr/lib/libThaiTokenizer.dylib",
    "/usr/lib/libChineseTokenizer.dylib",
    "/System/Library/Frameworks/MetalPerformanceShaders.framework/Versions/A/MetalPerformanceShaders",
    "/System/Library/Frameworks/Metal.framework/Versions/A/Metal",
    "/System/Library/Frameworks/Accelerate.framework/Versions/A/Frameworks/vImage.framework/Versions/A/vImage",
    "/System/Library/Frameworks/Accelerate.framework/Versions/A/Frameworks/vecLib.framework/Versions/A/vecLib",
    "/System/Library/Frameworks/Accelerate.framework/Versions/A/Frameworks/vecLib.framework/Versions/A/libvMisc.dylib",
    "/System/Library/Frameworks/Accelerate.framework/Versions/A/Frameworks/vecLib.framework/Versions/A/libvDSP.dylib",
    "/System/Library/Frameworks/Accelerate.framework/Versions/A/Frameworks/vecLib.framework/Versions/A/libBLAS.dylib",
    "/System/Library/Frameworks/Accelerate.framework/Versions/A/Frameworks/vecLib.framework/Versions/A/libLAPACK.dylib",
    "/System/Library/Frameworks/Accelerate.framework/Versions/A/Frameworks/vecLib.framework/Versions/A/libLinearAlgebra.dylib",
    "/System/Library/Frameworks/Accelerate.framework/Versions/A/Frameworks/vecLib.framework/Versions/A/libSparseBLAS.dylib",
    "/System/Library/Frameworks/Accelerate.framework/Versions/A/Frameworks/vecLib.framework/Versions/A/libQuadrature.dylib",
    "/System/Library/Frameworks/Accelerate.framework/Versions/A/Frameworks/vecLib.framework/Versions/A/libBNNS.dylib",
    "/System/Library/Frameworks/Accelerate.framework/Versions/A/Frameworks/vecLib.framework/Versions/A/libSparse.dylib",
    "/System/Library/Frameworks/MetalPerformanceShaders.framework/Versions/A/Frameworks/MPSCore.framework/Versions/A/MPSCore",
    "/System/Library/Frameworks/MetalPerformanceShaders.framework/Versions/A/Frameworks/MPSImage.framework/Versions/A/MPSImage",
    "/System/Library/Frameworks/MetalPerformanceShaders.framework/Versions/A/Frameworks/MPSNeuralNetwork.framework/Versions/A/MPSNeuralNetwork",
    "/System/Library/Frameworks/MetalPerformanceShaders.framework/Versions/A/Frameworks/MPSMatrix.framework/Versions/A/MPSMatrix",
    "/System/Library/Frameworks/MetalPerformanceShaders.framework/Versions/A/Frameworks/MPSRayIntersector.framework/Versions/A/MPSRayIntersector",
    "/System/Library/Frameworks/MetalPerformanceShaders.framework/Versions/A/Frameworks/MPSNDArray.framework/Versions/A/MPSNDArray",
    "/System/Library/PrivateFrameworks/MetalTools.framework/Versions/A/MetalTools",
    "/System/Library/PrivateFrameworks/AggregateDictionary.framework/Versions/A/AggregateDictionary",
    "/System/Library/PrivateFrameworks/CoreAnalytics.framework/Versions/A/CoreAnalytics",
    "/System/Library/PrivateFrameworks/AppleSauce.framework/Versions/A/AppleSauce",
    "/System/Library/PrivateFrameworks/IOAccelerator.framework/Versions/A/IOAccelerator",
    "/System/Library/Frameworks/OpenGL.framework/Versions/A/Libraries/libCoreFSCache.dylib",
    "/System/Library/PrivateFrameworks/LanguageModeling.framework/Versions/A/LanguageModeling",
    "/System/Library/PrivateFrameworks/CoreEmoji.framework/Versions/A/CoreEmoji",
    "/System/Library/PrivateFrameworks/LinguisticData.framework/Versions/A/LinguisticData",
    "/System/Library/PrivateFrameworks/Lexicon.framework/Versions/A/Lexicon",
    "/usr/lib/libcmph.dylib",
    "/System/Library/Frameworks/OpenDirectory.framework/Versions/A/Frameworks/CFOpenDirectory.framework/Versions/A/CFOpenDirectory",
    "/System/Library/Frameworks/OpenDirectory.framework/Versions/A/OpenDirectory",
    "/System/Library/PrivateFrameworks/APFS.framework/Versions/A/APFS",
    "/System/Library/Frameworks/SecurityFoundation.framework/Versions/A/SecurityFoundation",
    "/usr/lib/libutil.dylib",
    "/usr/lib/libapp_launch_measurement.dylib",
    "/System/Library/PrivateFrameworks/CoreServicesStore.framework/Versions/A/CoreServicesStore",
    "/System/Library/Frameworks/ServiceManagement.framework/Versions/A/ServiceManagement",
    "/usr/lib/libxslt.1.dylib",
    "/System/Library/PrivateFrameworks/BackgroundTaskManagement.framework/Versions/A/BackgroundTaskManagement",
    "/System/Library/PrivateFrameworks/UIFoundation.framework/Versions/A/UIFoundation",
    "/System/Library/PrivateFrameworks/RemoteViewServices.framework/Versions/A/RemoteViewServices",
    "/System/Library/PrivateFrameworks/XCTTargetBootstrap.framework/Versions/A/XCTTargetBootstrap",
    "/usr/lib/libspindump.dylib",
    "/System/Library/Frameworks/UniformTypeIdentifiers.framework/Versions/A/UniformTypeIdentifiers",
    "/System/Library/PrivateFrameworks/CoreSVG.framework/Versions/A/CoreSVG",
    "/System/Library/PrivateFrameworks/SkyLight.framework/Versions/A/SkyLight",
    "/System/Library/PrivateFrameworks/IconServices.framework/Versions/A/IconServices",
    "/System/Library/PrivateFrameworks/DFRFoundation.framework/Versions/A/DFRFoundation",
    "/System/Library/Frameworks/AudioToolbox.framework/Versions/A/AudioToolbox",
    "/System/Library/Frameworks/CoreData.framework/Versions/A/CoreData",
    "/System/Library/PrivateFrameworks/DataDetectorsCore.framework/Versions/A/DataDetectorsCore",
    "/System/Library/Frameworks/Carbon.framework/Versions/A/Frameworks/HIToolbox.framework/Versions/A/HIToolbox",
    "/System/Library/Frameworks/QuartzCore.framework/Versions/A/QuartzCore",
    "/System/Library/Frameworks/Carbon.framework/Versions/A/Frameworks/SpeechRecognition.framework/Versions/A/SpeechRecognition",
    "/System/Library/PrivateFrameworks/CoreUI.framework/Versions/A/CoreUI",
    "/System/Library/Frameworks/CoreAudio.framework/Versions/A/CoreAudio",
    "/System/Library/PrivateFrameworks/MultitouchSupport.framework/Versions/A/MultitouchSupport",
    "/System/Library/PrivateFrameworks/InternationalSupport.framework/Versions/A/InternationalSupport",
    "/System/Library/PrivateFrameworks/PerformanceAnalysis.framework/Versions/A/PerformanceAnalysis",
    "/System/Library/Frameworks/OpenGL.framework/Versions/A/OpenGL",
    "/System/Library/PrivateFrameworks/UserActivity.framework/Versions/A/UserActivity",
    "/System/Library/Frameworks/ColorSync.framework/Versions/A/ColorSync",
    "/System/Library/Frameworks/CoreImage.framework/Versions/A/CoreImage",
    "/System/Library/Frameworks/ImageIO.framework/Versions/A/ImageIO",
    "/System/Library/PrivateFrameworks/TextureIO.framework/Versions/A/TextureIO",
    "/usr/lib/libate.dylib",
    "/System/Library/Frameworks/ImageIO.framework/Versions/A/Resources/libRadiance.dylib",
    "/System/Library/Frameworks/ImageIO.framework/Versions/A/Resources/libJPEG.dylib",
    "/System/Library/Frameworks/ImageIO.framework/Versions/A/Resources/libPng.dylib",
    "/System/Library/Frameworks/ImageIO.framework/Versions/A/Resources/libTIFF.dylib",
    "/System/Library/Frameworks/ImageIO.framework/Versions/A/Resources/libGIF.dylib",
    "/System/Library/Frameworks/ImageIO.framework/Versions/A/Resources/libJP2.dylib",
    "/usr/lib/libexpat.1.dylib",
    "/System/Library/PrivateFrameworks/AppleJPEG.framework/Versions/A/AppleJPEG",
    "/System/Library/PrivateFrameworks/FontServices.framework/libFontParser.dylib",
    "/System/Library/PrivateFrameworks/RunningBoardServices.framework/Versions/A/RunningBoardServices",
    "/System/Library/PrivateFrameworks/WatchdogClient.framework/Versions/A/WatchdogClient",
    "/System/Library/Frameworks/CoreDisplay.framework/Versions/A/CoreDisplay",
    "/System/Library/Frameworks/CoreMedia.framework/Versions/A/CoreMedia",
    "/System/Library/Frameworks/CoreVideo.framework/Versions/A/CoreVideo",
    "/System/Library/Frameworks/VideoToolbox.framework/Versions/A/VideoToolbox",
    "/System/Library/PrivateFrameworks/BaseBoard.framework/Versions/A/BaseBoard",
    "/System/Library/PrivateFrameworks/PersistentConnection.framework/Versions/A/PersistentConnection",
    "/System/Library/PrivateFrameworks/ProtocolBuffer.framework/Versions/A/ProtocolBuffer",
    "/System/Library/PrivateFrameworks/CommonUtilities.framework/Versions/A/CommonUtilities",
    "/System/Library/PrivateFrameworks/Bom.framework/Versions/A/Bom",
    "/System/Library/PrivateFrameworks/GPUWrangler.framework/Versions/A/GPUWrangler",
    "/System/Library/PrivateFrameworks/IOPresentment.framework/Versions/A/IOPresentment",
    "/System/Library/PrivateFrameworks/DSExternalDisplay.framework/Versions/A/DSExternalDisplay",
    "/System/Library/PrivateFrameworks/CMCaptureCore.framework/Versions/A/CMCaptureCore",
    "/System/Library/PrivateFrameworks/AppServerSupport.framework/Versions/A/AppServerSupport",
    "/System/Library/PrivateFrameworks/perfdata.framework/Versions/A/perfdata",
    "/System/Library/PrivateFrameworks/AssertionServices.framework/Versions/A/AssertionServices",
    "/System/Library/PrivateFrameworks/AudioToolboxCore.framework/Versions/A/AudioToolboxCore",
    "/System/Library/PrivateFrameworks/caulk.framework/Versions/A/caulk",
    "/System/Library/PrivateFrameworks/SystemPolicy.framework/Versions/A/SystemPolicy",
    "/usr/lib/libIOReport.dylib",
    "/usr/lib/libSMC.dylib",
    "/usr/lib/libAudioToolboxUtility.dylib",
    "/usr/lib/libmis.dylib",
    "/System/Library/Frameworks/OpenGL.framework/Versions/A/Libraries/libGLU.dylib",
    "/System/Library/Frameworks/OpenGL.framework/Versions/A/Libraries/libGFXShared.dylib",
    "/System/Library/Frameworks/OpenGL.framework/Versions/A/Libraries/libGL.dylib",
    "/System/Library/Frameworks/OpenGL.framework/Versions/A/Libraries/libGLImage.dylib",
    "/System/Library/Frameworks/OpenGL.framework/Versions/A/Libraries/libCVMSPluginSupport.dylib",
    "/System/Library/Frameworks/OpenGL.framework/Versions/A/Libraries/libCoreVMClient.dylib",
    "/System/Library/Frameworks/OpenCL.framework/Versions/A/OpenCL",
    "/System/Library/PrivateFrameworks/GraphVisualizer.framework/Versions/A/GraphVisualizer",
    "/System/Library/PrivateFrameworks/FaceCore.framework/Versions/A/FaceCore",
    "/System/Library/PrivateFrameworks/OTSVG.framework/Versions/A/OTSVG",
    "/System/Library/Frameworks/ApplicationServices.framework/Versions/A/Frameworks/ATS.framework/Versions/A/Resources/libFontRegistry.dylib",
    "/System/Library/PrivateFrameworks/FontServices.framework/libhvf.dylib",
    "/System/Library/PrivateFrameworks/AppleVA.framework/Versions/A/AppleVA",
    "/System/Library/Frameworks/ApplicationServices.framework/Versions/A/Frameworks/ATS.framework/Versions/A/ATS",
    "/System/Library/Frameworks/ApplicationServices.framework/Versions/A/Frameworks/ColorSyncLegacy.framework/Versions/A/ColorSyncLegacy",
    "/System/Library/Frameworks/ApplicationServices.framework/Versions/A/Frameworks/HIServices.framework/Versions/A/HIServices",
    "/System/Library/Frameworks/ApplicationServices.framework/Versions/A/Frameworks/LangAnalysis.framework/Versions/A/LangAnalysis",
    "/System/Library/Frameworks/ApplicationServices.framework/Versions/A/Frameworks/PrintCore.framework/Versions/A/PrintCore",
    "/System/Library/Frameworks/ApplicationServices.framework/Versions/A/Frameworks/QD.framework/Versions/A/QD",
    "/System/Library/Frameworks/ApplicationServices.framework/Versions/A/Frameworks/SpeechSynthesis.framework/Versions/A/SpeechSynthesis",
    "/System/Library/Frameworks/ApplicationServices.framework/Versions/A/Frameworks/ATSUI.framework/Versions/A/ATSUI",
    "/usr/lib/libcups.2.dylib",
    "/System/Library/PrivateFrameworks/NetAuth.framework/Versions/A/NetAuth",
    "/System/Library/Frameworks/Kerberos.framework/Versions/A/Kerberos",
    "/System/Library/Frameworks/GSS.framework/Versions/A/GSS",
    "/System/Library/PrivateFrameworks/Heimdal.framework/Versions/A/Heimdal",
    "/System/Library/Frameworks/Kerberos.framework/Versions/A/Libraries/libHeimdalProxy.dylib",
    "/System/Library/Frameworks/Network.framework/Versions/A/Network",
    "/usr/lib/libheimdal-asn1.dylib",
    "/System/Library/PrivateFrameworks/CommonAuth.framework/Versions/A/CommonAuth",
    "/System/Library/PrivateFrameworks/login.framework/Versions/A/Frameworks/loginsupport.framework/Versions/A/loginsupport",
    "/System/Library/PrivateFrameworks/AudioSession.framework/Versions/A/AudioSession",
    "/usr/lib/libAudioStatistics.dylib",
    "/System/Library/PrivateFrameworks/MediaExperience.framework/Versions/A/MediaExperience",
    "/System/Library/PrivateFrameworks/AudioSession.framework/libSessionUtility.dylib",
    "/usr/lib/libperfcheck.dylib",
    "/System/Library/PrivateFrameworks/AudioResourceArbitration.framework/Versions/A/AudioResourceArbitration",
    "/System/Library/PrivateFrameworks/IconFoundation.framework/Versions/A/IconFoundation",
    "/System/Library/PrivateFrameworks/SpeechRecognitionCore.framework/Versions/A/SpeechRecognitionCore",
    "/System/Library/Frameworks/Carbon.framework/Versions/A/Frameworks/CommonPanels.framework/Versions/A/CommonPanels",
    "/System/Library/Frameworks/Carbon.framework/Versions/A/Frameworks/Help.framework/Versions/A/Help",
    "/System/Library/Frameworks/Carbon.framework/Versions/A/Frameworks/ImageCapture.framework/Versions/A/ImageCapture",
    "/System/Library/Frameworks/Carbon.framework/Versions/A/Frameworks/OpenScripting.framework/Versions/A/OpenScripting",
    "/System/Library/Frameworks/Carbon.framework/Versions/A/Frameworks/Ink.framework/Versions/A/Ink",
    "/System/Library/Frameworks/Carbon.framework/Versions/A/Frameworks/Print.framework/Versions/A/Print",
    "/System/Library/Frameworks/Carbon.framework/Versions/A/Frameworks/SecurityHI.framework/Versions/A/SecurityHI",
    "/Users/marocchinial/Documents/localhost/WEROAD-TEST/node_modules/fsevents/fsevents.node"
  ]
}